{
  "version": "1.0.0-*",
  "authors": ["Kirill Taran"],
  "buildOptions": {
    "compilerName": "fsc",
    "compile": {
      "includeFiles": [
        "Model/Tokens.fs",
        "Model/ControlUtils.fs",
        "Model/Transcriber.fs",
        "Ming.fs"
      ]
    }
  },
  "tools": {
    "dotnet-compile-fsc": {
      "version": "1.0.0-preview2-*"
    }
  },
  "frameworks": {
    "net40": { 
      "dependencies": {
        "FSharp.Core": "4.0.0.1",
        "Ming.Core": {
          "target": "project",
          "version": "1.0.0"
        }
      },
      "frameworkAssemblies": {
      }
    }
  }
}
