{
  "version": "1.0.0-*",
  "authors": ["Kirill Taran"],
  "buildOptions": {
    "compilerName": "fsc",
    "compile": {
      "includeFiles": [
        "Model/Interfaces.fs",
        "Model/StringComparison.fs",
        "Model/Tree.fs",
        "Model/BaseTypes.fs",
        "Utils/StringUtils.fs",
        "Utils/Utils.fs"
      ]
    }
  },
  "tools": {
    "dotnet-compile-fsc": {
      "version": "1.0.0-preview2-*"
    }
  },
  "frameworks": {
    "net40": { 
      "dependencies": {
        "FSharp.Core": "4.0.0.1"
      },
      "frameworkAssemblies": {
      }
    }
  }
}
